Version 4.1
SHEET 1 956 680
WIRE -224 112 -288 112
WIRE -112 112 -224 112
WIRE -16 112 -112 112
WIRE 128 112 64 112
WIRE 208 112 128 112
WIRE 384 112 304 112
WIRE 416 112 384 112
WIRE 528 112 496 112
WIRE 640 112 608 112
WIRE 736 112 640 112
WIRE 832 112 736 112
WIRE -112 144 -112 112
WIRE 640 144 640 112
WIRE 832 176 832 112
WIRE -288 192 -288 112
WIRE 288 224 288 176
WIRE -112 240 -112 224
WIRE 640 240 640 224
WIRE 288 320 288 304
FLAG -112 304 0
FLAG -288 272 0
FLAG 640 304 0
FLAG 832 256 0
FLAG 128 112 vsw
FLAG 736 112 vout
FLAG -224 112 vg
FLAG 384 112 vL
FLAG 288 400 vL
SYMBOL GaN_LTspice_GS61008T_L1V4P1 256 160 R270
SYMATTR InstName U1
SYMBOL res 272 208 R0
SYMATTR InstName R1
SYMATTR Value {R_G}
SYMBOL voltage 288 304 R0
WINDOW 123 0 0 Left 0
WINDOW 39 0 0 Left 0
SYMATTR InstName V1
SYMATTR Value PULSE(0 5 0 10n 10n {D*T} {T})
SYMBOL res 80 96 R90
WINDOW 0 0 56 VBottom 2
WINDOW 3 32 56 VTop 2
SYMATTR InstName R2
SYMATTR Value 1n
SYMBOL cap -128 240 R0
SYMATTR InstName C1
SYMATTR Value {cin}
SYMBOL voltage -288 176 R0
SYMATTR InstName VBATT
SYMATTR Value {batt}
SYMBOL res 512 96 R90
WINDOW 0 0 56 VBottom 2
WINDOW 3 32 56 VTop 2
SYMATTR InstName R3
SYMATTR Value {R_L}
SYMBOL ind 512 128 R270
WINDOW 0 32 56 VTop 2
WINDOW 3 5 56 VBottom 2
SYMATTR InstName L1
SYMATTR Value {L}
SYMBOL res -128 128 R0
SYMATTR InstName R4
SYMATTR Value {R_C}
SYMBOL cap 624 240 R0
SYMATTR InstName C2
SYMATTR Value {cout}
SYMBOL res 624 128 R0
SYMATTR InstName R5
SYMATTR Value {R_C}
SYMBOL res 816 160 R0
SYMATTR InstName R6
SYMATTR Value {RLoad}
TEXT -216 520 Left 2 !.param R_C=0.01 R_G=2.2 R_L=0.01
TEXT -216 552 Left 2 !.param cin=10u L=1n cout=10u RLoad=5
TEXT -216 584 Left 2 !.param batt=10 D=0.5 T=10u
TEXT -216 624 Left 2 !.tran 0 10m 0 10u
